[
  {
    "name": "Black bear",
    "weight": "120 - 270 kg",
    "speed": "40 km/h",
    "img": "blackbear.jpg"
  },
  {
    "name": "Orca whale",
    "weight": "3 600 – 5 400 kg",
    "speed": "48 km/h",
    "img": "orca.png"
  },
  {
    "name": "Bald eagle",
    "weight": "3 – 6,3 kg",
    "speed": "120 – 160 km/h",
    "img": "baldeagle.jpg"
  },
  {
    "name": "Axolotl",
    "weight": "3,6 kg",
    "speed": "16 km/h",
    "img": "axolotl.jpg"
  }
]